<?xml version="1.0" encoding="iso-8859-1"?>
<!-- Generator: Adobe Illustrator 18.0.0, SVG Export Plug-In . SVG Version: 6.00 Build 0)  -->
<!DOCTYPE svg PUBLIC "-//W3C//DTD SVG 1.1//EN" "http://www.w3.org/Graphics/SVG/1.1/DTD/svg11.dtd">
<svg xmlns="http://www.w3.org/2000/svg" xmlns:xlink="http://www.w3.org/1999/xlink" version="1.1" id="Capa_1" x="0px" y="0px" viewBox="0 0 406.855 406.855" style="enable-background:new 0 0 406.855 406.855;" xml:space="preserve" width="512px" height="512px">
<g>
	<path d="M406.855,2.438H0v43.499h22.686v217.489h173.242v104.994H145.68v35.999h15v-20.999h85.495v20.999h15v-35.999h-50.247   V263.425h173.241V45.936h22.687V2.438z M369.169,248.425H37.686V45.936h331.483V248.425z M391.855,30.936h-7.687H22.686H15V17.438   h376.855V30.936z" fill="#FFFFFF"/>
	<polygon points="129.054,155.944 170.827,209.261 237.941,125.363 268.418,162.678 337.407,80.766 325.935,71.103 268.596,139.183    237.82,101.502 170.949,185.095 128.502,130.918 69.082,214.067 81.286,222.788  " fill="#FFFFFF"/>
</g>
<g>
</g>
<g>
</g>
<g>
</g>
<g>
</g>
<g>
</g>
<g>
</g>
<g>
</g>
<g>
</g>
<g>
</g>
<g>
</g>
<g>
</g>
<g>
</g>
<g>
</g>
<g>
</g>
<g>
</g>
</svg>
